<?xml version="1.0" encoding="UTF-8" standalone="no"?>
<svg
   width="25.100214mm"
   height="23.146187mm"
   viewBox="0 0 25.100214 23.146187"
   version="1.1"
   id="svg8"
   inkscape:version="1.1.1 (3bf5ae0d25, 2021-09-20)"
   sodipodi:docname="logo.svg"
   inkscape:export-filename="/home/nkondras/projects/github.com/rh-fmk/marketing/logo-cki-filled.png"
   inkscape:export-xdpi="40.509998"
   inkscape:export-ydpi="40.509998"
   xmlns:inkscape="http://www.inkscape.org/namespaces/inkscape"
   xmlns:sodipodi="http://sodipodi.sourceforge.net/DTD/sodipodi-0.dtd"
   xmlns="http://www.w3.org/2000/svg"
   xmlns:svg="http://www.w3.org/2000/svg"
   xmlns:rdf="http://www.w3.org/1999/02/22-rdf-syntax-ns#"
   xmlns:cc="http://creativecommons.org/ns#"
   xmlns:dc="http://purl.org/dc/elements/1.1/">
  <defs
     id="defs2">
    <filter
       inkscape:label="Button"
       inkscape:menu="Bevels"
       inkscape:menu-tooltip="Soft bevel, slightly depressed middle"
       style="color-interpolation-filters:sRGB"
       id="filter3387">
      <feGaussianBlur
         stdDeviation="2.3"
         in="SourceAlpha"
         result="result0"
         id="feGaussianBlur3361" />
      <feMorphology
         in="SourceAlpha"
         radius="6.6"
         result="result1"
         id="feMorphology3363" />
      <feGaussianBlur
         stdDeviation="8.9"
         in="result1"
         id="feGaussianBlur3365" />
      <feColorMatrix
         values="1 0 0 0 0 0 1 0 0 0 0 0 1 0 0 0 0 0 0.3 0"
         result="result91"
         id="feColorMatrix3367" />
      <feComposite
         in="result0"
         operator="out"
         result="result2"
         in2="result91"
         id="feComposite3369" />
      <feGaussianBlur
         stdDeviation="1.7"
         result="result4"
         id="feGaussianBlur3371" />
      <feDiffuseLighting
         surfaceScale="10"
         id="feDiffuseLighting3375">
        <feDistantLight
           azimuth="225"
           elevation="45"
           id="feDistantLight3373" />
      </feDiffuseLighting>
      <feBlend
         in2="SourceGraphic"
         mode="multiply"
         id="feBlend3377" />
      <feComposite
         in2="SourceAlpha"
         operator="in"
         result="result3"
         id="feComposite3379" />
      <feSpecularLighting
         in="result4"
         surfaceScale="5"
         specularExponent="17.89999962"
         id="feSpecularLighting3383">
        <feDistantLight
           azimuth="225"
           elevation="45"
           id="feDistantLight3381" />
      </feSpecularLighting>
      <feComposite
         in2="result3"
         operator="atop"
         id="feComposite3385" />
    </filter>
    <filter
       inkscape:label="Button"
       inkscape:menu="Bevels"
       inkscape:menu-tooltip="Soft bevel, slightly depressed middle"
       style="color-interpolation-filters:sRGB"
       id="filter3415">
      <feGaussianBlur
         stdDeviation="2.3"
         in="SourceAlpha"
         result="result0"
         id="feGaussianBlur3389" />
      <feMorphology
         in="SourceAlpha"
         radius="6.6"
         result="result1"
         id="feMorphology3391" />
      <feGaussianBlur
         stdDeviation="8.9"
         in="result1"
         id="feGaussianBlur3393" />
      <feColorMatrix
         values="1 0 0 0 0 0 1 0 0 0 0 0 1 0 0 0 0 0 0.3 0"
         result="result91"
         id="feColorMatrix3395" />
      <feComposite
         in="result0"
         operator="out"
         result="result2"
         in2="result91"
         id="feComposite3397" />
      <feGaussianBlur
         stdDeviation="1.7"
         result="result4"
         id="feGaussianBlur3399" />
      <feDiffuseLighting
         surfaceScale="10"
         id="feDiffuseLighting3403">
        <feDistantLight
           azimuth="225"
           elevation="45"
           id="feDistantLight3401" />
      </feDiffuseLighting>
      <feBlend
         in2="SourceGraphic"
         mode="multiply"
         id="feBlend3405" />
      <feComposite
         in2="SourceAlpha"
         operator="in"
         result="result3"
         id="feComposite3407" />
      <feSpecularLighting
         in="result4"
         surfaceScale="5"
         specularExponent="17.89999962"
         id="feSpecularLighting3411">
        <feDistantLight
           azimuth="225"
           elevation="45"
           id="feDistantLight3409" />
      </feSpecularLighting>
      <feComposite
         in2="result3"
         operator="atop"
         id="feComposite3413" />
    </filter>
    <filter
       inkscape:label="Button"
       inkscape:menu="Bevels"
       inkscape:menu-tooltip="Soft bevel, slightly depressed middle"
       style="color-interpolation-filters:sRGB"
       id="filter3443">
      <feGaussianBlur
         stdDeviation="2.3"
         in="SourceAlpha"
         result="result0"
         id="feGaussianBlur3417" />
      <feMorphology
         in="SourceAlpha"
         radius="6.6"
         result="result1"
         id="feMorphology3419" />
      <feGaussianBlur
         stdDeviation="8.9"
         in="result1"
         id="feGaussianBlur3421" />
      <feColorMatrix
         values="1 0 0 0 0 0 1 0 0 0 0 0 1 0 0 0 0 0 0.3 0"
         result="result91"
         id="feColorMatrix3423" />
      <feComposite
         in="result0"
         operator="out"
         result="result2"
         in2="result91"
         id="feComposite3425" />
      <feGaussianBlur
         stdDeviation="1.7"
         result="result4"
         id="feGaussianBlur3427" />
      <feDiffuseLighting
         surfaceScale="10"
         id="feDiffuseLighting3431">
        <feDistantLight
           azimuth="225"
           elevation="45"
           id="feDistantLight3429" />
      </feDiffuseLighting>
      <feBlend
         in2="SourceGraphic"
         mode="multiply"
         id="feBlend3433" />
      <feComposite
         in2="SourceAlpha"
         operator="in"
         result="result3"
         id="feComposite3435" />
      <feSpecularLighting
         in="result4"
         surfaceScale="5"
         specularExponent="17.89999962"
         id="feSpecularLighting3439">
        <feDistantLight
           azimuth="225"
           elevation="45"
           id="feDistantLight3437" />
      </feSpecularLighting>
      <feComposite
         in2="result3"
         operator="atop"
         id="feComposite3441" />
    </filter>
    <filter
       inkscape:label="Button"
       inkscape:menu="Bevels"
       inkscape:menu-tooltip="Soft bevel, slightly depressed middle"
       style="color-interpolation-filters:sRGB"
       id="filter3471">
      <feGaussianBlur
         stdDeviation="2.3"
         in="SourceAlpha"
         result="result0"
         id="feGaussianBlur3445" />
      <feMorphology
         in="SourceAlpha"
         radius="6.6"
         result="result1"
         id="feMorphology3447" />
      <feGaussianBlur
         stdDeviation="8.9"
         in="result1"
         id="feGaussianBlur3449" />
      <feColorMatrix
         values="1 0 0 0 0 0 1 0 0 0 0 0 1 0 0 0 0 0 0.3 0"
         result="result91"
         id="feColorMatrix3451" />
      <feComposite
         in="result0"
         operator="out"
         result="result2"
         in2="result91"
         id="feComposite3453" />
      <feGaussianBlur
         stdDeviation="1.7"
         result="result4"
         id="feGaussianBlur3455" />
      <feDiffuseLighting
         surfaceScale="10"
         id="feDiffuseLighting3459">
        <feDistantLight
           azimuth="225"
           elevation="45"
           id="feDistantLight3457" />
      </feDiffuseLighting>
      <feBlend
         in2="SourceGraphic"
         mode="multiply"
         id="feBlend3461" />
      <feComposite
         in2="SourceAlpha"
         operator="in"
         result="result3"
         id="feComposite3463" />
      <feSpecularLighting
         in="result4"
         surfaceScale="5"
         specularExponent="17.89999962"
         id="feSpecularLighting3467">
        <feDistantLight
           azimuth="225"
           elevation="45"
           id="feDistantLight3465" />
      </feSpecularLighting>
      <feComposite
         in2="result3"
         operator="atop"
         id="feComposite3469" />
    </filter>
    <filter
       inkscape:label="Button"
       inkscape:menu="Bevels"
       inkscape:menu-tooltip="Soft bevel, slightly depressed middle"
       style="color-interpolation-filters:sRGB"
       id="filter3499">
      <feGaussianBlur
         stdDeviation="2.3"
         in="SourceAlpha"
         result="result0"
         id="feGaussianBlur3473" />
      <feMorphology
         in="SourceAlpha"
         radius="6.6"
         result="result1"
         id="feMorphology3475" />
      <feGaussianBlur
         stdDeviation="8.9"
         in="result1"
         id="feGaussianBlur3477" />
      <feColorMatrix
         values="1 0 0 0 0 0 1 0 0 0 0 0 1 0 0 0 0 0 0.3 0"
         result="result91"
         id="feColorMatrix3479" />
      <feComposite
         in="result0"
         operator="out"
         result="result2"
         in2="result91"
         id="feComposite3481" />
      <feGaussianBlur
         stdDeviation="1.7"
         result="result4"
         id="feGaussianBlur3483" />
      <feDiffuseLighting
         surfaceScale="10"
         id="feDiffuseLighting3487">
        <feDistantLight
           azimuth="225"
           elevation="45"
           id="feDistantLight3485" />
      </feDiffuseLighting>
      <feBlend
         in2="SourceGraphic"
         mode="multiply"
         id="feBlend3489" />
      <feComposite
         in2="SourceAlpha"
         operator="in"
         result="result3"
         id="feComposite3491" />
      <feSpecularLighting
         in="result4"
         surfaceScale="5"
         specularExponent="17.89999962"
         id="feSpecularLighting3495">
        <feDistantLight
           azimuth="225"
           elevation="45"
           id="feDistantLight3493" />
      </feSpecularLighting>
      <feComposite
         in2="result3"
         operator="atop"
         id="feComposite3497" />
    </filter>
    <filter
       inkscape:label="Button"
       inkscape:menu="Bevels"
       inkscape:menu-tooltip="Soft bevel, slightly depressed middle"
       style="color-interpolation-filters:sRGB"
       id="filter3527">
      <feGaussianBlur
         stdDeviation="2.3"
         in="SourceAlpha"
         result="result0"
         id="feGaussianBlur3501" />
      <feMorphology
         in="SourceAlpha"
         radius="6.6"
         result="result1"
         id="feMorphology3503" />
      <feGaussianBlur
         stdDeviation="8.9"
         in="result1"
         id="feGaussianBlur3505" />
      <feColorMatrix
         values="1 0 0 0 0 0 1 0 0 0 0 0 1 0 0 0 0 0 0.3 0"
         result="result91"
         id="feColorMatrix3507" />
      <feComposite
         in="result0"
         operator="out"
         result="result2"
         in2="result91"
         id="feComposite3509" />
      <feGaussianBlur
         stdDeviation="1.7"
         result="result4"
         id="feGaussianBlur3511" />
      <feDiffuseLighting
         surfaceScale="10"
         id="feDiffuseLighting3515">
        <feDistantLight
           azimuth="225"
           elevation="45"
           id="feDistantLight3513" />
      </feDiffuseLighting>
      <feBlend
         in2="SourceGraphic"
         mode="multiply"
         id="feBlend3517" />
      <feComposite
         in2="SourceAlpha"
         operator="in"
         result="result3"
         id="feComposite3519" />
      <feSpecularLighting
         in="result4"
         surfaceScale="5"
         specularExponent="17.89999962"
         id="feSpecularLighting3523">
        <feDistantLight
           azimuth="225"
           elevation="45"
           id="feDistantLight3521" />
      </feSpecularLighting>
      <feComposite
         in2="result3"
         operator="atop"
         id="feComposite3525" />
    </filter>
    <filter
       inkscape:label="Combined Lighting"
       inkscape:menu="Bevels"
       inkscape:menu-tooltip="Basic specular bevel to use for building textures"
       style="color-interpolation-filters:sRGB"
       id="filter4116">
      <feGaussianBlur
         stdDeviation="6"
         in="SourceGraphic"
         result="result0"
         id="feGaussianBlur4098" />
      <feDiffuseLighting
         lighting-color="#ffffff"
         diffuseConstant="1"
         surfaceScale="4"
         result="result5"
         id="feDiffuseLighting4102">
        <feDistantLight
           elevation="45"
           azimuth="235"
           id="feDistantLight4100" />
      </feDiffuseLighting>
      <feComposite
         k1="1.4"
         in2="SourceGraphic"
         in="result5"
         result="fbSourceGraphic"
         operator="arithmetic"
         id="feComposite4104"
         k2="0"
         k3="0"
         k4="0" />
      <feGaussianBlur
         result="result0"
         in="fbSourceGraphic"
         stdDeviation="6"
         id="feGaussianBlur4106" />
      <feSpecularLighting
         specularExponent="25"
         specularConstant="1"
         surfaceScale="4"
         lighting-color="#ffffff"
         result="result1"
         in="result0"
         id="feSpecularLighting4110">
        <feDistantLight
           azimuth="235"
           elevation="45"
           id="feDistantLight4108" />
      </feSpecularLighting>
      <feComposite
         k3="1"
         k2="1"
         operator="arithmetic"
         in="fbSourceGraphic"
         in2="result1"
         result="result4"
         id="feComposite4112"
         k1="0"
         k4="0" />
      <feComposite
         operator="in"
         result="result2"
         in2="SourceGraphic"
         in="result4"
         id="feComposite4114" />
    </filter>
    <filter
       inkscape:label="Combined Lighting"
       inkscape:menu="Bevels"
       inkscape:menu-tooltip="Basic specular bevel to use for building textures"
       style="color-interpolation-filters:sRGB"
       id="filter4136">
      <feGaussianBlur
         stdDeviation="6"
         in="SourceGraphic"
         result="result0"
         id="feGaussianBlur4118" />
      <feDiffuseLighting
         lighting-color="#ffffff"
         diffuseConstant="1"
         surfaceScale="4"
         result="result5"
         id="feDiffuseLighting4122">
        <feDistantLight
           elevation="45"
           azimuth="235"
           id="feDistantLight4120" />
      </feDiffuseLighting>
      <feComposite
         k1="1.4"
         in2="SourceGraphic"
         in="result5"
         result="fbSourceGraphic"
         operator="arithmetic"
         id="feComposite4124"
         k2="0"
         k3="0"
         k4="0" />
      <feGaussianBlur
         result="result0"
         in="fbSourceGraphic"
         stdDeviation="6"
         id="feGaussianBlur4126" />
      <feSpecularLighting
         specularExponent="25"
         specularConstant="1"
         surfaceScale="4"
         lighting-color="#ffffff"
         result="result1"
         in="result0"
         id="feSpecularLighting4130">
        <feDistantLight
           azimuth="235"
           elevation="45"
           id="feDistantLight4128" />
      </feSpecularLighting>
      <feComposite
         k3="1"
         k2="1"
         operator="arithmetic"
         in="fbSourceGraphic"
         in2="result1"
         result="result4"
         id="feComposite4132"
         k1="0"
         k4="0" />
      <feComposite
         operator="in"
         result="result2"
         in2="SourceGraphic"
         in="result4"
         id="feComposite4134" />
    </filter>
    <filter
       inkscape:label="Combined Lighting"
       inkscape:menu="Bevels"
       inkscape:menu-tooltip="Basic specular bevel to use for building textures"
       style="color-interpolation-filters:sRGB"
       id="filter4156">
      <feGaussianBlur
         stdDeviation="6"
         in="SourceGraphic"
         result="result0"
         id="feGaussianBlur4138" />
      <feDiffuseLighting
         lighting-color="#ffffff"
         diffuseConstant="1"
         surfaceScale="4"
         result="result5"
         id="feDiffuseLighting4142">
        <feDistantLight
           elevation="45"
           azimuth="235"
           id="feDistantLight4140" />
      </feDiffuseLighting>
      <feComposite
         k1="1.4"
         in2="SourceGraphic"
         in="result5"
         result="fbSourceGraphic"
         operator="arithmetic"
         id="feComposite4144"
         k2="0"
         k3="0"
         k4="0" />
      <feGaussianBlur
         result="result0"
         in="fbSourceGraphic"
         stdDeviation="6"
         id="feGaussianBlur4146" />
      <feSpecularLighting
         specularExponent="25"
         specularConstant="1"
         surfaceScale="4"
         lighting-color="#ffffff"
         result="result1"
         in="result0"
         id="feSpecularLighting4150">
        <feDistantLight
           azimuth="235"
           elevation="45"
           id="feDistantLight4148" />
      </feSpecularLighting>
      <feComposite
         k3="1"
         k2="1"
         operator="arithmetic"
         in="fbSourceGraphic"
         in2="result1"
         result="result4"
         id="feComposite4152"
         k1="0"
         k4="0" />
      <feComposite
         operator="in"
         result="result2"
         in2="SourceGraphic"
         in="result4"
         id="feComposite4154" />
    </filter>
    <filter
       inkscape:label="Button"
       inkscape:menu="Bevels"
       inkscape:menu-tooltip="Soft bevel, slightly depressed middle"
       style="color-interpolation-filters:sRGB"
       id="filter5717">
      <feGaussianBlur
         stdDeviation="2.3"
         in="SourceAlpha"
         result="result0"
         id="feGaussianBlur5691" />
      <feMorphology
         in="SourceAlpha"
         radius="6.6"
         result="result1"
         id="feMorphology5693" />
      <feGaussianBlur
         stdDeviation="8.9"
         in="result1"
         id="feGaussianBlur5695" />
      <feColorMatrix
         values="1 0 0 0 0 0 1 0 0 0 0 0 1 0 0 0 0 0 0.3 0"
         result="result91"
         id="feColorMatrix5697" />
      <feComposite
         in="result0"
         operator="out"
         result="result2"
         in2="result91"
         id="feComposite5699" />
      <feGaussianBlur
         stdDeviation="1.7"
         result="result4"
         id="feGaussianBlur5701" />
      <feDiffuseLighting
         surfaceScale="3"
         id="feDiffuseLighting5705">
        <feDistantLight
           azimuth="225"
           elevation="45"
           id="feDistantLight5703" />
      </feDiffuseLighting>
      <feBlend
         in2="SourceGraphic"
         mode="multiply"
         id="feBlend5707" />
      <feComposite
         in2="SourceAlpha"
         operator="in"
         result="result3"
         id="feComposite5709" />
      <feSpecularLighting
         in="result4"
         surfaceScale="5"
         specularExponent="17.89999962"
         id="feSpecularLighting5713">
        <feDistantLight
           azimuth="225"
           elevation="45"
           id="feDistantLight5711" />
      </feSpecularLighting>
      <feComposite
         in2="result3"
         operator="atop"
         id="feComposite5715" />
    </filter>
    <filter
       inkscape:label="Button"
       inkscape:menu="Bevels"
       inkscape:menu-tooltip="Soft bevel, slightly depressed middle"
       style="color-interpolation-filters:sRGB"
       id="filter5745">
      <feGaussianBlur
         stdDeviation="2.3"
         in="SourceAlpha"
         result="result0"
         id="feGaussianBlur5719" />
      <feMorphology
         in="SourceAlpha"
         radius="6.6"
         result="result1"
         id="feMorphology5721" />
      <feGaussianBlur
         stdDeviation="8.9"
         in="result1"
         id="feGaussianBlur5723" />
      <feColorMatrix
         values="1 0 0 0 0 0 1 0 0 0 0 0 1 0 0 0 0 0 0.3 0"
         result="result91"
         id="feColorMatrix5725" />
      <feComposite
         in="result0"
         operator="out"
         result="result2"
         in2="result91"
         id="feComposite5727" />
      <feGaussianBlur
         stdDeviation="1.7"
         result="result4"
         id="feGaussianBlur5729" />
      <feDiffuseLighting
         surfaceScale="3"
         id="feDiffuseLighting5733">
        <feDistantLight
           azimuth="225"
           elevation="45"
           id="feDistantLight5731" />
      </feDiffuseLighting>
      <feBlend
         in2="SourceGraphic"
         mode="multiply"
         id="feBlend5735" />
      <feComposite
         in2="SourceAlpha"
         operator="in"
         result="result3"
         id="feComposite5737" />
      <feSpecularLighting
         in="result4"
         surfaceScale="5"
         specularExponent="17.89999962"
         id="feSpecularLighting5741">
        <feDistantLight
           azimuth="225"
           elevation="45"
           id="feDistantLight5739" />
      </feSpecularLighting>
      <feComposite
         in2="result3"
         operator="atop"
         id="feComposite5743" />
    </filter>
    <filter
       inkscape:label="Button"
       inkscape:menu="Bevels"
       inkscape:menu-tooltip="Soft bevel, slightly depressed middle"
       style="color-interpolation-filters:sRGB"
       id="filter5773">
      <feGaussianBlur
         stdDeviation="2.3"
         in="SourceAlpha"
         result="result0"
         id="feGaussianBlur5747" />
      <feMorphology
         in="SourceAlpha"
         radius="6.6"
         result="result1"
         id="feMorphology5749" />
      <feGaussianBlur
         stdDeviation="8.9"
         in="result1"
         id="feGaussianBlur5751" />
      <feColorMatrix
         values="1 0 0 0 0 0 1 0 0 0 0 0 1 0 0 0 0 0 0.3 0"
         result="result91"
         id="feColorMatrix5753" />
      <feComposite
         in="result0"
         operator="out"
         result="result2"
         in2="result91"
         id="feComposite5755" />
      <feGaussianBlur
         stdDeviation="1.7"
         result="result4"
         id="feGaussianBlur5757" />
      <feDiffuseLighting
         surfaceScale="3"
         id="feDiffuseLighting5761">
        <feDistantLight
           azimuth="225"
           elevation="45"
           id="feDistantLight5759" />
      </feDiffuseLighting>
      <feBlend
         in2="SourceGraphic"
         mode="multiply"
         id="feBlend5763" />
      <feComposite
         in2="SourceAlpha"
         operator="in"
         result="result3"
         id="feComposite5765" />
      <feSpecularLighting
         in="result4"
         surfaceScale="5"
         specularExponent="17.89999962"
         id="feSpecularLighting5769">
        <feDistantLight
           azimuth="225"
           elevation="45"
           id="feDistantLight5767" />
      </feSpecularLighting>
      <feComposite
         in2="result3"
         operator="atop"
         id="feComposite5771" />
    </filter>
  </defs>
  <sodipodi:namedview
     id="base"
     pagecolor="#ffffff"
     bordercolor="#666666"
     borderopacity="1.0"
     inkscape:pageopacity="0.0"
     inkscape:pageshadow="2"
     inkscape:zoom="7.9195959"
     inkscape:cx="26.832177"
     inkscape:cy="44.509847"
     inkscape:document-units="mm"
     inkscape:current-layer="layer1"
     showgrid="false"
     inkscape:measure-start="384.111,743.725"
     inkscape:measure-end="395.222,811.91"
     inkscape:window-width="1918"
     inkscape:window-height="1058"
     inkscape:window-x="0"
     inkscape:window-y="20"
     inkscape:window-maximized="1"
     inkscape:document-rotation="0"
     inkscape:pagecheckerboard="0" />
  <metadata
     id="metadata5">
    <rdf:RDF>
      <cc:Work
         rdf:about="">
        <dc:format>image/svg+xml</dc:format>
        <dc:type
           rdf:resource="http://purl.org/dc/dcmitype/StillImage" />
      </cc:Work>
    </rdf:RDF>
  </metadata>
  <g
     inkscape:label="Layer 1"
     inkscape:groupmode="layer"
     id="layer1"
     transform="translate(-53.19598,-54.433831)">
    <path
       id="path1040-9"
       d="m 53.283692,61.839547 c 0.106753,0.405021 0.423469,0.66818 0.677881,0.879558 0.136073,0.113019 0.276757,0.230058 0.332439,0.326642 0.05769,0.09919 0.08961,0.282784 0.120822,0.460231 0.05935,0.338939 0.126379,0.722919 0.416022,1.014686 0.291179,0.291295 0.693369,0.361044 1.016586,0.417199 0.176741,0.0305 0.35963,0.06242 0.459054,0.119876 0.09588,0.05544 0.212799,0.196007 0.325937,0.332079 0.21138,0.25453 0.47454,0.571242 0.877676,0.677521 0.38954,0.104743 0.753188,-0.02837 1.074042,-0.145764 0.172603,-0.06325 0.350999,-0.128388 0.472886,-0.128388 0.121768,0 0.300164,0.06538 0.472767,0.128388 0.239281,0.0876 0.502205,0.183716 0.781562,0.183716 0.09517,0 0.191992,-0.01111 0.290588,-0.03748 0.405027,-0.106753 0.668189,-0.423465 0.879568,-0.677995 0.113138,-0.136072 0.230059,-0.276636 0.326646,-0.332435 0.09931,-0.05757 0.282786,-0.08949 0.460236,-0.1207 0.338941,-0.05935 0.723043,-0.126498 1.014695,-0.416019 0.291298,-0.291296 0.361048,-0.693362 0.417204,-1.016576 0.0305,-0.176858 0.06242,-0.359626 0.119876,-0.45905 0.05545,-0.09587 0.19613,-0.212914 0.332203,-0.325933 0.254412,-0.211378 0.571127,-0.474537 0.677409,-0.877669 0.104625,-0.390008 -0.02837,-0.753179 -0.145768,-1.074029 -0.06313,-0.1726 -0.12827,-0.351115 -0.12827,-0.472881 0,-0.121766 0.06538,-0.30016 0.12827,-0.47288 0.117158,-0.320495 0.250393,-0.683905 0.146241,-1.071785 -0.106755,-0.405024 -0.42347,-0.668181 -0.677882,-0.879559 -0.136073,-0.113139 -0.276757,-0.230057 -0.33244,-0.326644 -0.05769,-0.09931 -0.08961,-0.282782 -0.120822,-0.460231 -0.05935,-0.339056 -0.126378,-0.723036 -0.416021,-1.014803 -0.291179,-0.291177 -0.693369,-0.360927 -1.016586,-0.417082 -0.176741,-0.0305 -0.359512,-0.06254 -0.459054,-0.119875 -0.09588,-0.05544 -0.212799,-0.196127 -0.325937,-0.332199 -0.211379,-0.25441 -0.474541,-0.571122 -0.877676,-0.677402 -0.389776,-0.105098 -0.753189,0.02802 -1.074042,0.145765 -0.17284,0.06337 -0.351472,0.128506 -0.473004,0.128506 -0.12165,0 -0.300282,-0.06538 -0.472886,-0.128269 -0.320617,-0.117511 -0.683793,-0.250154 -1.071914,-0.146239 -0.405027,0.106753 -0.668187,0.423465 -0.879567,0.677876 -0.113138,0.136071 -0.23006,0.276753 -0.326646,0.332435 -0.09931,0.05769 -0.282786,0.08961 -0.460236,0.120821 -0.338941,0.05935 -0.722925,0.126377 -1.014695,0.415899 -0.291298,0.291295 -0.361049,0.69348 -0.417204,1.016694 -0.0305,0.176741 -0.06242,0.359509 -0.119877,0.459051 -0.05544,0.09587 -0.196129,0.212796 -0.332202,0.325933 -0.254412,0.211378 -0.571128,0.474535 -0.677409,0.877666 -0.104626,0.39001 0.02837,0.753183 0.145767,1.074033 0.06325,0.172364 0.128271,0.350995 0.128271,0.472525 0,0.12153 -0.06538,0.300281 -0.128271,0.472883 -0.117394,0.320612 -0.250393,0.683783 -0.146239,1.071902 z"
       inkscape:connector-curvature="0"
       style="fill:#30638e;fill-opacity:1;stroke:none;stroke-width:0.1;stroke-miterlimit:4;stroke-dasharray:none"
       sodipodi:nodetypes="ccccccccccscsccccccccccscccccccccccscccccccccccscc" />
    <path
       id="path1040-9-0"
       d="m 66.661942,61.839547 c 0.106753,0.405021 0.423469,0.66818 0.677881,0.879558 0.136073,0.113019 0.276757,0.230058 0.332439,0.326642 0.05769,0.09919 0.08961,0.282784 0.120822,0.460231 0.05935,0.338939 0.126379,0.722919 0.416022,1.014686 0.291179,0.291295 0.693369,0.361044 1.016586,0.417199 0.176741,0.0305 0.35963,0.06242 0.459054,0.119876 0.09588,0.05544 0.212799,0.196007 0.325937,0.332079 0.21138,0.25453 0.47454,0.571242 0.877676,0.677521 0.38954,0.104743 0.753188,-0.02837 1.074042,-0.145764 0.172603,-0.06325 0.350999,-0.128388 0.472886,-0.128388 0.121768,0 0.300164,0.06538 0.472767,0.128388 0.239281,0.0876 0.502205,0.183716 0.781562,0.183716 0.09517,0 0.191992,-0.01111 0.290588,-0.03748 0.405027,-0.106753 0.668189,-0.423465 0.879568,-0.677995 0.113138,-0.136072 0.230059,-0.276636 0.326646,-0.332435 0.09931,-0.05757 0.282786,-0.08949 0.460237,-0.1207 0.33894,-0.05935 0.723042,-0.126498 1.014694,-0.416019 0.291298,-0.291296 0.361048,-0.693362 0.417204,-1.016576 0.0305,-0.176858 0.06242,-0.359626 0.119876,-0.45905 0.05545,-0.09587 0.19613,-0.212914 0.332203,-0.325933 0.254413,-0.211378 0.571127,-0.474537 0.677409,-0.877669 0.104625,-0.390008 -0.02837,-0.753177 -0.145767,-1.074028 -0.06313,-0.1726 -0.128271,-0.351114 -0.128271,-0.47288 0,-0.121766 0.06538,-0.300161 0.128271,-0.472881 0.117157,-0.320494 0.250392,-0.683905 0.14624,-1.071785 -0.106755,-0.405023 -0.423469,-0.66818 -0.677882,-0.879559 -0.136073,-0.113139 -0.276757,-0.230058 -0.332439,-0.326645 -0.05769,-0.0993 -0.08961,-0.282781 -0.120822,-0.460231 -0.05935,-0.339056 -0.126379,-0.723035 -0.416022,-1.014803 -0.291179,-0.291176 -0.693369,-0.360926 -1.016586,-0.417081 -0.176741,-0.0305 -0.359512,-0.06254 -0.459054,-0.119875 -0.09588,-0.05545 -0.212799,-0.196128 -0.325937,-0.332199 -0.211379,-0.25441 -0.474541,-0.571122 -0.877676,-0.677403 -0.389775,-0.105097 -0.753189,0.02802 -1.074042,0.145766 -0.17284,0.06337 -0.351472,0.128505 -0.473004,0.128505 -0.12165,0 -0.300282,-0.06538 -0.472886,-0.128269 -0.320617,-0.11751 -0.683793,-0.250154 -1.071914,-0.146238 -0.405027,0.106753 -0.668187,0.423465 -0.879567,0.677875 -0.113138,0.136072 -0.23006,0.276754 -0.326646,0.332436 -0.09931,0.05769 -0.282786,0.08961 -0.460236,0.120821 -0.338941,0.05935 -0.722925,0.126377 -1.014695,0.415899 -0.291298,0.291295 -0.361049,0.69348 -0.417204,1.016694 -0.0305,0.17674 -0.06242,0.359508 -0.119877,0.459051 -0.05545,0.09587 -0.196129,0.212796 -0.332202,0.325933 -0.254412,0.211378 -0.571128,0.474535 -0.677409,0.877666 -0.104626,0.390011 0.02837,0.753183 0.145767,1.074034 0.06325,0.172364 0.128271,0.350994 0.128271,0.472524 0,0.121531 -0.06538,0.300281 -0.128271,0.472883 -0.117394,0.320613 -0.250393,0.683782 -0.146239,1.071901 z"
       inkscape:connector-curvature="0"
       style="fill:#30638e;fill-opacity:1;stroke:none;stroke-width:0.1;stroke-miterlimit:4;stroke-dasharray:none"
       sodipodi:nodetypes="ccccccccccscsccccccccccscccccccccccscccccccccccscc" />
    <path
       id="path1040"
       d="m 59.972817,73.26419 c 0.106754,0.405021 0.423469,0.66818 0.677881,0.879558 0.136073,0.113019 0.276757,0.230058 0.332439,0.326643 0.05769,0.09919 0.08961,0.282784 0.120822,0.460231 0.05935,0.338938 0.126379,0.722918 0.416022,1.014685 0.291179,0.291296 0.693369,0.361045 1.016586,0.4172 0.176741,0.0305 0.35963,0.06242 0.459054,0.119876 0.09588,0.05544 0.212799,0.196006 0.325937,0.332079 0.21138,0.254529 0.47454,0.571242 0.877676,0.677521 0.38954,0.104743 0.753188,-0.02837 1.074042,-0.145764 0.172603,-0.06325 0.350999,-0.128388 0.472886,-0.128388 0.121768,0 0.300164,0.06538 0.472767,0.128388 0.239281,0.0876 0.502205,0.183713 0.781562,0.183713 0.09517,0 0.191992,-0.01111 0.290588,-0.03748 0.405027,-0.106753 0.668189,-0.423466 0.879568,-0.677995 0.113138,-0.136073 0.230059,-0.276636 0.326646,-0.332435 0.09931,-0.05757 0.282786,-0.08949 0.460237,-0.120703 0.33894,-0.05935 0.723042,-0.126496 1.014694,-0.416017 0.291298,-0.291295 0.361048,-0.693361 0.417204,-1.016575 0.0305,-0.176858 0.06242,-0.359626 0.119876,-0.459051 0.05545,-0.09587 0.19613,-0.212914 0.332203,-0.325933 0.254413,-0.211378 0.571127,-0.474537 0.677409,-0.877668 0.104625,-0.390008 -0.02837,-0.753181 -0.145767,-1.074031 -0.06313,-0.172602 -0.128271,-0.351114 -0.128271,-0.472881 0,-0.121767 0.06538,-0.300162 0.128271,-0.472881 0.117157,-0.320495 0.250392,-0.683904 0.14624,-1.071785 -0.106755,-0.405023 -0.423469,-0.668181 -0.677882,-0.879559 -0.136073,-0.113137 -0.276757,-0.230057 -0.332439,-0.326643 -0.05769,-0.09931 -0.08961,-0.282783 -0.120822,-0.460231 -0.05935,-0.339057 -0.126379,-0.723036 -0.416022,-1.014804 -0.291179,-0.291176 -0.693369,-0.360926 -1.016586,-0.417081 -0.176741,-0.0305 -0.359512,-0.06254 -0.459054,-0.119876 -0.09588,-0.05545 -0.212799,-0.196127 -0.325937,-0.332198 -0.211379,-0.254411 -0.474541,-0.571123 -0.877676,-0.677403 -0.389775,-0.105098 -0.753189,0.02802 -1.074042,0.145766 -0.17284,0.06337 -0.351472,0.128505 -0.473004,0.128505 -0.12165,0 -0.300282,-0.06538 -0.472886,-0.128269 -0.320617,-0.117511 -0.683793,-0.250154 -1.071914,-0.146238 -0.405027,0.106753 -0.668187,0.423465 -0.879567,0.677875 -0.113138,0.136072 -0.23006,0.276754 -0.326646,0.332436 -0.09931,0.05769 -0.282786,0.08961 -0.460236,0.120821 -0.338941,0.05935 -0.722925,0.126377 -1.014695,0.415899 -0.291298,0.291294 -0.361049,0.69348 -0.417204,1.016694 -0.0305,0.17674 -0.06242,0.359508 -0.119876,0.459049 -0.05545,0.09588 -0.19613,0.212797 -0.332203,0.325934 -0.254412,0.211378 -0.571127,0.474536 -0.677409,0.877667 -0.104626,0.390009 0.02837,0.753182 0.145767,1.074032 0.06325,0.172365 0.128271,0.350996 0.128271,0.472526 0,0.121531 -0.06538,0.30028 -0.128271,0.472882 -0.117394,0.320613 -0.250393,0.683786 -0.146239,1.071904 z"
       inkscape:connector-curvature="0"
       style="fill:#30638e;fill-opacity:1;stroke:none;stroke-width:0.1;stroke-miterlimit:4;stroke-dasharray:none"
       sodipodi:nodetypes="ccccccccccscsccccccccccscccccccccccscccccccccccscc" />
    <path
       d="m 59.362322,62.386317 q 0.4784,0 0.814298,-0.111966 0.346077,-0.122143 0.488579,-0.254465 0.142502,-0.142501 0.285004,-0.254465 0.152681,-0.122143 0.285004,-0.122143 0.203575,0 0.356256,0.152679 0.152681,0.15268 0.152681,0.356251 0,0.437682 -0.702332,0.844826 -0.692154,0.407144 -1.710026,0.407144 -1.292698,0 -2.147711,-0.753216 -0.844835,-0.763397 -0.844835,-1.923761 v -0.671789 q 0,-1.221435 0.793941,-2.045904 0.793941,-0.824469 1.974673,-0.824469 0.712511,0 1.445379,0.346074 l 0.101787,0.04071 q 0.173038,-0.244287 0.427507,-0.244287 0.295182,0 0.39697,0.173037 0.111966,0.173036 0.111966,0.498752 v 0.855005 q 0,0.671789 -0.508936,0.671789 -0.183217,0 -0.305362,-0.101786 -0.111966,-0.101786 -0.142502,-0.183215 -0.02036,-0.09161 -0.05089,-0.254466 -0.06107,-0.305359 -0.376613,-0.488574 -0.305362,-0.193394 -0.570008,-0.244287 -0.264647,-0.05089 -0.488579,-0.05089 -0.773584,0 -1.28252,0.529288 -0.508936,0.51911 -0.508936,1.323222 v 0.651432 q 0,0.763396 0.539473,1.221435 0.549651,0.458038 1.465736,0.458038 z"
       style="font-style:normal;font-variant:normal;font-weight:bold;font-stretch:normal;font-size:42.3333px;line-height:125%;font-family:FreeMono;-inkscape-font-specification:'FreeMono Bold';letter-spacing:0px;word-spacing:0px;fill:#ffffff;fill-opacity:1;stroke:none;stroke-width:0.1;stroke-linecap:butt;stroke-linejoin:miter;stroke-miterlimit:4;stroke-dasharray:none;stroke-opacity:1"
       id="path1045" />
    <path
       d="m 71.712521,57.32754 q 0.671796,0 0.671796,0.508931 0,0.508932 -0.671796,0.508932 h -0.356256 v 1.516615 l 1.811814,-1.55733 q -0.315541,-0.122143 -0.315541,-0.458038 0,-0.51911 0.671796,-0.51911 h 1.017872 q 0.671796,0 0.671796,0.508931 0,0.508932 -0.631081,0.508932 l -1.791455,1.557329 q 0.987336,0.51911 1.720204,2.341083 h 0.325719 q 0.671796,0 0.671796,0.508932 0,0.508932 -0.671796,0.508932 H 73.71773 Q 73.361474,62.172566 72.893253,61.47024 72.43521,60.767915 71.966989,60.625414 l -0.610724,0.51911 v 1.099291 h 0.356256 q 0.671796,0 0.671796,0.508932 0,0.508932 -0.671796,0.508932 h -1.526809 q -0.671796,0 -0.671796,-0.508932 0,-0.508932 0.671796,-0.508932 h 0.152681 v -3.898412 h -0.152681 q -0.671796,0 -0.671796,-0.508932 0,-0.29518 0.173038,-0.396966 0.173039,-0.111965 0.498758,-0.111965 z"
       style="font-style:normal;font-variant:normal;font-weight:bold;font-stretch:normal;font-size:42.3333px;line-height:125%;font-family:FreeMono;-inkscape-font-specification:'FreeMono Bold';letter-spacing:0px;word-spacing:0px;fill:#ffffff;fill-opacity:1;stroke:none;stroke-width:0.1;stroke-linecap:butt;stroke-linejoin:miter;stroke-miterlimit:4;stroke-dasharray:none;stroke-opacity:1"
       id="path1042" />
    <g
       aria-label="I"
       style="font-style:normal;font-weight:normal;font-size:10.5833px;line-height:125%;font-family:sans-serif;letter-spacing:0px;word-spacing:0px;fill:#ffffff;fill-opacity:1;stroke:none;stroke-width:0.415902;stroke-linecap:butt;stroke-linejoin:miter;stroke-miterlimit:4;stroke-dasharray:none;stroke-opacity:1"
       id="text77"
       transform="matrix(0.24044234,0,0,0.24043996,48.716663,48.826601)">
      <path
         d="m 77.217722,103.31833 q 1.354666,0 2.074333,0.46567 0.719667,0.42333 0.719667,1.651 0,2.11667 -2.794,2.11667 H 64.433056 q -2.794,0 -2.794,-2.11667 0,-1.22767 0.719666,-1.651 0.719667,-0.46567 2.074334,-0.46567 h 4.275666 V 87.104667 h -4.275666 q -2.794,0 -2.794,-2.116667 0,-1.227666 0.719666,-1.651 0.719667,-0.465666 2.074334,-0.465666 h 12.784666 q 1.354666,0 2.074333,0.465666 0.719667,0.423334 0.719667,1.651 0,2.116667 -2.794,2.116667 h -4.275667 v 16.213663 z"
         style="font-style:normal;font-variant:normal;font-weight:bold;font-stretch:normal;font-size:42.3333px;font-family:FreeMono;-inkscape-font-specification:'FreeMono Bold';fill:#ffffff;stroke:none;stroke-width:0.415902;stroke-miterlimit:4;stroke-dasharray:none"
         id="path1039" />
    </g>
  </g>
</svg>
