<job id="8309894" owner="mhofmann@redhat.com" result="Warn" status="Aborted" retention_tag="scratch">
  <whiteboard>abortpass</whiteboard>
  <recipeSet priority="Normal" response="ack" id="12369849">
    <recipe id="14613072" job_id="8309894" recipe_set_id="12369849" whiteboard="" role="None" kickstart_url="http://beaker.engineering.redhat.com/kickstart/12554010" ks_meta="" kernel_options="" kernel_options_post="" start_time="2023-09-14 13:23:11" finish_time="2023-09-14 13:32:14" duration="0:09:03" result="Warn" status="Aborted" distro="Fedora-Rawhide-20230914.n.0" arch="x86_64" family="Fedorarawhide" variant="Server" system="kvm-03-guest24.lab.eng.rdu2.redhat.com">
      <autopick random="false"/>
      <watchdog/>
      <installation install_started="2023-09-14 13:24:28" install_finished="2023-09-14 13:29:20" postinstall_finished="2023-09-14 13:30:56"/>
      <packages/>
      <ks_appends/>
      <roles>
        <role value="None">
          <system value="kvm-03-guest24.lab.eng.rdu2.redhat.com"/>
        </role>
      </roles>
      <repos/>
      <distroRequires>
        <and>
          <distro_family op="=" value="Fedorarawhide"/>
          <distro_variant op="=" value="Server"/>
        </and>
      </distroRequires>
      <hostRequires>
          <hostname op="like" value="kvm-%-guest%.lab.eng.rdu2.redhat.com"/>
      <system_type value="Machine"/></hostRequires>
      <partitions/>
      <logs>
        <log href="https://beaker.engineering.redhat.com/recipes/14613072/logs/console.log" name="console.log"/>
        <log href="https://beaker.engineering.redhat.com/recipes/14613072/logs/systemd_journal.log" name="systemd_journal.log"/>
        <log href="https://beaker.engineering.redhat.com/recipes/14613072/logs/anaconda.log" name="anaconda.log"/>
        <log href="https://beaker.engineering.redhat.com/recipes/14613072/logs/sys.log" name="sys.log"/>
        <log href="https://beaker.engineering.redhat.com/recipes/14613072/logs/storage.log" name="storage.log"/>
        <log href="https://beaker.engineering.redhat.com/recipes/14613072/logs/program.log" name="program.log"/>
        <log href="https://beaker.engineering.redhat.com/recipes/14613072/logs/ks.cfg" name="ks.cfg"/>
        <log href="https://beaker.engineering.redhat.com/recipes/14613072/logs/packaging.log" name="packaging.log"/>
        <log href="https://beaker.engineering.redhat.com/recipes/14613072/logs/hawkey.log" name="hawkey.log"/>
        <log href="https://beaker.engineering.redhat.com/recipes/14613072/logs/lvm.log" name="lvm.log"/>
        <log href="https://beaker.engineering.redhat.com/recipes/14613072/logs/boot.log" name="boot.log"/>
      </logs>
      <task name="abortpass" role="None" id="166171001" result="Warn" status="Aborted" start_time="2023-09-14 13:32:09" finish_time="2023-09-14 13:32:12" duration="0:00:03">
        <fetch url="https://gitlab.com/api/v4/projects/cki-project%2fdocumentation/repository/archive.zip#content/docs/test-maintainers/status-meaning/restraint/abortpass"/>
        <roles>
          <role value="None">
            <system value="kvm-03-guest24.lab.eng.rdu2.redhat.com"/>
          </role>
        </roles>
        <logs>
          <log href="https://beaker.engineering.redhat.com/recipes/14613072/tasks/166171001/logs/taskout.log" name="taskout.log"/>
          <log href="https://beaker.engineering.redhat.com/recipes/14613072/tasks/166171001/logs/harness.log" name="harness.log"/>
        </logs>
        <results>
          <result path="abortpass" start_time="2023-09-14 13:32:11" score="None" result="Pass" id="776340720">None<logs><log href="https://beaker.engineering.redhat.com/recipes/14613072/tasks/166171001/results/776340720/logs/dmesg.log" name="dmesg.log"/><log href="https://beaker.engineering.redhat.com/recipes/14613072/tasks/166171001/results/776340720/logs/avc.log" name="avc.log"/></logs></result>
          <result path="/" start_time="2023-09-14 13:32:12" score="0" result="Warn" id="776340728">None</result>
        </results>
      </task>
      <task name="pass" role="None" id="166171002" result="Warn" status="Aborted">
        <fetch url="https://gitlab.com/api/v4/projects/cki-project%2fdocumentation/repository/archive.zip#content/docs/test-maintainers/status-meaning/restraint/pass"/>
        <roles>
          <role value="None">
            <system value="kvm-03-guest24.lab.eng.rdu2.redhat.com"/>
          </role>
        </roles>
        <logs>
          <log href="https://beaker.engineering.redhat.com/recipes/14613072/tasks/166171002/logs/harness.log" name="harness.log"/>
        </logs>
        <results>
          <result path="/" start_time="2023-09-14 13:32:13" score="0" result="Warn" id="776340736">None</result>
        </results>
      </task>
    </recipe>
  </recipeSet>
</job>
