<job id="8315815" owner="mhofmann@redhat.com" result="Pass" status="Completed" retention_tag="scratch">
  <whiteboard>exit0</whiteboard>
  <recipeSet priority="Normal" response="ack" id="12378693">
    <recipe id="14622611" job_id="8315815" recipe_set_id="12378693" whiteboard="" role="None" kickstart_url="http://beaker.engineering.redhat.com/kickstart/12563446" ks_meta="" kernel_options="" kernel_options_post="" start_time="2023-09-15 16:05:41" finish_time="2023-09-15 16:21:17" duration="0:15:36" result="Pass" status="Completed" distro="Fedora-Rawhide-20230915.n.0" arch="x86_64" family="Fedorarawhide" variant="Server" system="kvm-02-guest02.lab.eng.rdu2.redhat.com">
      <autopick random="false"/>
      <watchdog/>
      <installation install_started="2023-09-15 16:07:13" install_finished="2023-09-15 16:16:34" postinstall_finished="2023-09-15 16:19:40"/>
      <packages/>
      <ks_appends/>
      <roles>
        <role value="None">
          <system value="kvm-02-guest02.lab.eng.rdu2.redhat.com"/>
        </role>
      </roles>
      <repos/>
      <distroRequires>
        <and>
          <distro_family op="=" value="Fedorarawhide"/>
          <distro_variant op="=" value="Server"/>
        </and>
      </distroRequires>
      <hostRequires>
          <hostname op="like" value="kvm-%-guest%.lab.eng.rdu2.redhat.com"/>
      <system_type value="Machine"/></hostRequires>
      <partitions/>
      <logs>
        <log href="https://beaker.engineering.redhat.com/recipes/14622611/logs/console.log" name="console.log"/>
        <log href="https://beaker.engineering.redhat.com/recipes/14622611/logs/systemd_journal.log" name="systemd_journal.log"/>
        <log href="https://beaker.engineering.redhat.com/recipes/14622611/logs/anaconda.log" name="anaconda.log"/>
        <log href="https://beaker.engineering.redhat.com/recipes/14622611/logs/sys.log" name="sys.log"/>
        <log href="https://beaker.engineering.redhat.com/recipes/14622611/logs/storage.log" name="storage.log"/>
        <log href="https://beaker.engineering.redhat.com/recipes/14622611/logs/program.log" name="program.log"/>
        <log href="https://beaker.engineering.redhat.com/recipes/14622611/logs/ks.cfg" name="ks.cfg"/>
        <log href="https://beaker.engineering.redhat.com/recipes/14622611/logs/packaging.log" name="packaging.log"/>
        <log href="https://beaker.engineering.redhat.com/recipes/14622611/logs/lvm.log" name="lvm.log"/>
        <log href="https://beaker.engineering.redhat.com/recipes/14622611/logs/hawkey.log" name="hawkey.log"/>
        <log href="https://beaker.engineering.redhat.com/recipes/14622611/logs/boot.log" name="boot.log"/>
      </logs>
      <task name="exit0" role="None" id="166242116" result="Pass" status="Completed" start_time="2023-09-15 16:21:10" finish_time="2023-09-15 16:21:13" duration="0:00:03">
        <fetch url="https://gitlab.com/api/v4/projects/cki-project%2fdocumentation/repository/archive.zip#content/docs/test-maintainers/status-meaning/restraint/exit0"/>
        <roles>
          <role value="None">
            <system value="kvm-02-guest02.lab.eng.rdu2.redhat.com"/>
          </role>
        </roles>
        <logs>
          <log href="https://beaker.engineering.redhat.com/recipes/14622611/tasks/166242116/logs/taskout.log" name="taskout.log"/>
          <log href="https://beaker.engineering.redhat.com/recipes/14622611/tasks/166242116/logs/harness.log" name="harness.log"/>
        </logs>
        <results>
          <result path="exit_code" start_time="2023-09-15 16:21:12" score="0" result="Pass" id="776652814">None</result>
        </results>
      </task>
      <task name="pass" role="None" id="166242117" result="Pass" status="Completed" start_time="2023-09-15 16:21:13" finish_time="2023-09-15 16:21:16" duration="0:00:03">
        <fetch url="https://gitlab.com/api/v4/projects/cki-project%2fdocumentation/repository/archive.zip#content/docs/test-maintainers/status-meaning/restraint/pass"/>
        <roles>
          <role value="None">
            <system value="kvm-02-guest02.lab.eng.rdu2.redhat.com"/>
          </role>
        </roles>
        <logs>
          <log href="https://beaker.engineering.redhat.com/recipes/14622611/tasks/166242117/logs/taskout.log" name="taskout.log"/>
          <log href="https://beaker.engineering.redhat.com/recipes/14622611/tasks/166242117/logs/harness.log" name="harness.log"/>
        </logs>
        <results>
          <result path="/" start_time="2023-09-15 16:21:15" score="None" result="Pass" id="776652819">None<logs><log href="https://beaker.engineering.redhat.com/recipes/14622611/tasks/166242117/results/776652819/logs/dmesg.log" name="dmesg.log"/><log href="https://beaker.engineering.redhat.com/recipes/14622611/tasks/166242117/results/776652819/logs/avc.log" name="avc.log"/></logs></result>
        </results>
      </task>
    </recipe>
  </recipeSet>
</job>
