<job id="8338923" owner="mhofmann@redhat.com" result="Fail" status="Completed" retention_tag="scratch">
  <whiteboard>fail1</whiteboard>
  <recipeSet priority="Normal" response="ack" id="12409528">
    <recipe id="14657079" job_id="8338923" recipe_set_id="12409528" whiteboard="" role="None" kickstart_url="http://beaker.engineering.redhat.com/kickstart/12596579" ks_meta="" kernel_options="" kernel_options_post="" start_time="2023-09-21 10:43:33" finish_time="2023-09-21 11:00:19" duration="0:16:46" result="Fail" status="Completed" distro="Fedora-38" arch="x86_64" family="Fedora38" variant="Server" system="kvm-03-guest02.lab.eng.rdu2.redhat.com">
      <autopick random="false"/>
      <watchdog panic="None"/>
      <installation install_started="2023-09-21 10:44:57" install_finished="2023-09-21 10:55:10" postinstall_finished="2023-09-21 10:58:20"/>
      <packages/>
      <ks_appends/>
      <roles>
        <role value="None">
          <system value="kvm-03-guest02.lab.eng.rdu2.redhat.com"/>
        </role>
      </roles>
      <repos/>
      <distroRequires>
        <and>
          <distro_family op="=" value="Fedora38"/>
          <distro_variant op="=" value="Server"/>
        </and>
      </distroRequires>
      <hostRequires>
          <hostname op="like" value="kvm-%-guest%.lab.eng.rdu2.redhat.com"/>
      <system_type value="Machine"/></hostRequires>
      <partitions/>
      <logs>
        <log href="https://beaker.engineering.redhat.com/recipes/14657079/logs/console.log" name="console.log"/>
        <log href="https://beaker.engineering.redhat.com/recipes/14657079/logs/systemd_journal.log" name="systemd_journal.log"/>
        <log href="https://beaker.engineering.redhat.com/recipes/14657079/logs/anaconda.log" name="anaconda.log"/>
        <log href="https://beaker.engineering.redhat.com/recipes/14657079/logs/sys.log" name="sys.log"/>
        <log href="https://beaker.engineering.redhat.com/recipes/14657079/logs/storage.log" name="storage.log"/>
        <log href="https://beaker.engineering.redhat.com/recipes/14657079/logs/program.log" name="program.log"/>
        <log href="https://beaker.engineering.redhat.com/recipes/14657079/logs/ks.cfg" name="ks.cfg"/>
        <log href="https://beaker.engineering.redhat.com/recipes/14657079/logs/dnf.librepo.log" name="dnf.librepo.log"/>
        <log href="https://beaker.engineering.redhat.com/recipes/14657079/logs/lvm.log" name="lvm.log"/>
        <log href="https://beaker.engineering.redhat.com/recipes/14657079/logs/packaging.log" name="packaging.log"/>
        <log href="https://beaker.engineering.redhat.com/recipes/14657079/logs/hawkey.log" name="hawkey.log"/>
        <log href="https://beaker.engineering.redhat.com/recipes/14657079/logs/boot.log" name="boot.log"/>
      </logs>
      <task name="fail1" role="None" id="166490971" result="Fail" status="Completed" start_time="2023-09-21 10:59:54" finish_time="2023-09-21 11:00:07" duration="0:00:13">
        <fetch url="https://gitlab.com/api/v4/projects/cki-project%2fdocumentation/repository/archive.zip?sha=merge-requests/402/merge#content/docs/test-maintainers/status-meaning/restraint/fail1"/>
        <roles>
          <role value="None">
            <system value="kvm-03-guest02.lab.eng.rdu2.redhat.com"/>
          </role>
        </roles>
        <logs>
          <log href="https://beaker.engineering.redhat.com/recipes/14657079/tasks/166490971/logs/taskout.log" name="taskout.log"/>
          <log href="https://beaker.engineering.redhat.com/recipes/14657079/tasks/166490971/logs/harness.log" name="harness.log"/>
        </logs>
        <results>
          <result path="/" start_time="2023-09-21 11:00:05" score="None" result="Fail" id="777692830">None<logs><log href="https://beaker.engineering.redhat.com/recipes/14657079/tasks/166490971/results/777692830/logs/dmesg.log" name="dmesg.log"/><log href="https://beaker.engineering.redhat.com/recipes/14657079/tasks/166490971/results/777692830/logs/avc.log" name="avc.log"/></logs></result>
          <result path="exit_code" start_time="2023-09-21 11:00:06" score="256" result="Fail" id="777692833">Command returned non-zero</result>
        </results>
      </task>
      <task name="pass" role="None" id="166490972" result="Pass" status="Completed" start_time="2023-09-21 11:00:07" finish_time="2023-09-21 11:00:18" duration="0:00:11">
        <fetch url="https://gitlab.com/api/v4/projects/cki-project%2fdocumentation/repository/archive.zip?sha=merge-requests/402/merge#content/docs/test-maintainers/status-meaning/restraint/pass"/>
        <roles>
          <role value="None">
            <system value="kvm-03-guest02.lab.eng.rdu2.redhat.com"/>
          </role>
        </roles>
        <logs>
          <log href="https://beaker.engineering.redhat.com/recipes/14657079/tasks/166490972/logs/taskout.log" name="taskout.log"/>
          <log href="https://beaker.engineering.redhat.com/recipes/14657079/tasks/166490972/logs/harness.log" name="harness.log"/>
        </logs>
        <results>
          <result path="/" start_time="2023-09-21 11:00:17" score="None" result="Pass" id="777692883">None<logs><log href="https://beaker.engineering.redhat.com/recipes/14657079/tasks/166490972/results/777692883/logs/avc.log" name="avc.log"/></logs></result>
        </results>
      </task>
    </recipe>
  </recipeSet>
</job>
